<svg width="34" height="34" viewBox="0 0 34 34" fill="none" xmlns="http://www.w3.org/2000/svg">
<path d="M8.82979 16.8368C13.1541 16.8368 16.6596 13.3313 16.6596 9.00703C16.6596 4.68276 13.1541 1.17725 8.82979 1.17725C4.50552 1.17725 1 4.68276 1 9.00703C1 13.3313 4.50552 16.8368 8.82979 16.8368Z" stroke="#171321" stroke-width="0.680851" stroke-miterlimit="10"/>
<path d="M8.83024 10.3687C10.1463 10.3687 11.2132 9.30184 11.2132 7.98576C11.2132 6.66968 10.1463 5.60278 8.83024 5.60278C7.51416 5.60278 6.44727 6.66968 6.44727 7.98576C6.44727 9.30184 7.51416 10.3687 8.83024 10.3687Z" stroke="#171321" stroke-width="0.680851" stroke-miterlimit="10"/>
<path d="M3.72363 14.7943L5.08939 13.2335C5.73582 12.4947 6.66969 12.0709 7.65135 12.0709H10.0087C10.9903 12.0709 11.9242 12.4947 12.5706 13.2335L13.9364 14.7943" stroke="#171321" stroke-width="0.680851" stroke-miterlimit="10"/>
<path d="M25.1696 33.1773C29.4939 33.1773 32.9994 29.6718 32.9994 25.3475C32.9994 21.0232 29.4939 17.5177 25.1696 17.5177C20.8454 17.5177 17.3398 21.0232 17.3398 25.3475C17.3398 29.6718 20.8454 33.1773 25.1696 33.1773Z" stroke="#171321" stroke-width="0.680851" stroke-miterlimit="10"/>
<path d="M25.1701 26.7092C26.4862 26.7092 27.5531 25.6423 27.5531 24.3262C27.5531 23.0101 26.4862 21.9432 25.1701 21.9432C23.854 21.9432 22.7871 23.0101 22.7871 24.3262C22.7871 25.6423 23.854 26.7092 25.1701 26.7092Z" stroke="#171321" stroke-width="0.680851" stroke-miterlimit="10"/>
<path d="M20.0635 31.1348L21.4292 29.5739C22.0757 28.8351 23.0095 28.4114 23.9912 28.4114H26.3485C27.3302 28.4114 28.2641 28.8351 28.9105 29.5739L30.2762 31.1348" stroke="#171321" stroke-width="0.680851" stroke-miterlimit="10"/>
<path d="M27.5528 14.1134V10.7091C27.5528 8.45299 25.7239 6.62402 23.4677 6.62402H20.0635" stroke="#171321" stroke-width="0.680851" stroke-miterlimit="10"/>
<path d="M6.44727 20.2411V23.6453C6.44727 25.9015 8.27623 27.7305 10.5324 27.7305H13.9366" stroke="#171321" stroke-width="0.680851" stroke-miterlimit="10"/>
</svg>
